>A Genom einer bla:

2
1
3
5
4
|

6
7
-11
-9
-10
-8
12
16
|

15
14
-13
17
|

>B Genom von wem anders:
1
2
3
4
5
|

6
7
8
9
10
11
12
|

13
14
15
|

16
17
|