>BGenomVonWemAnders 
1 2 3 4 5 | 6 7 8 9 10 11 12 | 13 14 15 | 16 17 |

>genome5 
1 
-2 
3 
8 
4 
-5 
6 
| 7 9 -10 11 -12 13 14 -15 16 | 

>genome1 
1 -4 2 3 5 7 6 8 -16 -14 -15 -13 -11 -12 -10 9 17 |
>genome2 
1 2 3 4 5 6 7 8 9 10 11 12 13 14 15 16 17 |
>AGenomEinerBla 
2 1 3 5 4 | 6 7 -11 -9 -10 -8 12 16 | 15 14 -13 17 |
>nochnGenom 
man kann doch hier auch | 10 11 8 | 
>transGenom
1 2 -3 4 5 6 | 7 9 -10 11 -12 13 -14 15 -8 16 | 17 -18 19 |
>passend dazu
1 2 3 4 5 6 | 7 8 9 10 11 12 13 14 15 16 | 17 18 19 |
>compsauf1 chrom
-9 8 -7 4 -3 2 -1 | 10 6 5 11 |
>passend zu auf 1 comp
1 2 3 4 5 6 7 8 9 | 10 11 |
>L is even
1 -2 3 | 4 -5 6 -7 8 -9 10 | 11 -12 13 -14 15 |
>Zum L Genome
1 2 3 | 4 5 6 7 8 9 10 | 11 12 13 14 15 |
>withoutcomps
1 -2 4 8 9 6 | 7 -3 5 10 |
>another
1 2 3 4 5 6 | 7 8 9 10 |